[gd_scene load_steps=6 format=2]

[ext_resource path="res://Sprites/0x72/frames/weapon_red_gem_sword.png" type="Texture" id=1]
[ext_resource path="res://Scripts/Sword.gd" type="Script" id=2]

[sub_resource type="CapsuleShape2D" id=1]
radius = 2.83283
height = 7.03199

[sub_resource type="Animation" id=2]
resource_name = "Sword_Atk_Inv"
length = 0.2
tracks/0/type = "value"
tracks/0/path = NodePath(".:position")
tracks/0/interp = 1
tracks/0/loop_wrap = true
tracks/0/imported = false
tracks/0/enabled = true
tracks/0/keys = {
"times": PoolRealArray( 0, 0.1, 0.2 ),
"transitions": PoolRealArray( 1, 1, 1 ),
"update": 0,
"values": [ Vector2( 16, -24 ), Vector2( 32, 0 ), Vector2( 16, 24 ) ]
}
tracks/1/type = "value"
tracks/1/path = NodePath(".:rotation_degrees")
tracks/1/interp = 1
tracks/1/loop_wrap = true
tracks/1/imported = false
tracks/1/enabled = true
tracks/1/keys = {
"times": PoolRealArray( 0, 0.1, 0.2 ),
"transitions": PoolRealArray( 1, 1, 1 ),
"update": 0,
"values": [ -40.0, 90.0, 221.0 ]
}

[sub_resource type="Animation" id=3]
resource_name = "Sword_Atk_Inv"
length = 0.2
tracks/0/type = "value"
tracks/0/path = NodePath(".:position")
tracks/0/interp = 1
tracks/0/loop_wrap = true
tracks/0/imported = false
tracks/0/enabled = true
tracks/0/keys = {
"times": PoolRealArray( 0, 0.1, 0.2 ),
"transitions": PoolRealArray( 1, 1, 1 ),
"update": 0,
"values": [ Vector2( -16, -24 ), Vector2( -32, 0 ), Vector2( -16, 24 ) ]
}
tracks/1/type = "value"
tracks/1/path = NodePath(".:rotation_degrees")
tracks/1/interp = 1
tracks/1/loop_wrap = true
tracks/1/imported = false
tracks/1/enabled = true
tracks/1/keys = {
"times": PoolRealArray( 0, 0.1, 0.2 ),
"transitions": PoolRealArray( 1, 1, 1 ),
"update": 0,
"values": [ 40.0, -90.0, -221.0 ]
}

[node name="Sword" type="Node2D"]
position = Vector2( 16, 24 )
rotation = 3.85718
scale = Vector2( 2, 2 )
script = ExtResource( 2 )

[node name="Sprite" type="Sprite" parent="."]
position = Vector2( 9.53674e-07, -1.43051e-06 )
texture = ExtResource( 1 )

[node name="Area2D" type="Area2D" parent="."]

[node name="CollisionShape2D" type="CollisionShape2D" parent="Area2D"]
position = Vector2( 0, -3.42155 )
shape = SubResource( 1 )

[node name="AnimationPlayer" type="AnimationPlayer" parent="."]
anims/Sword_Atk = SubResource( 2 )
anims/Sword_Atk_Inv = SubResource( 3 )
[connection signal="body_entered" from="Area2D" to="." method="_on_Area2D_body_entered"]
[connection signal="animation_finished" from="AnimationPlayer" to="." method="_on_AnimationPlayer_animation_finished"]
